{
	"id": "8fde5756-d5ba-4dd4-41b4-b34de55fef52",
	"name": "StarWars",
	"description": "practitioner taller",
	"order": [
		"34c9b94b-7a4d-93ce-097f-c07579b28a18",
		"9a7aed5e-3694-70d0-44a9-3eb815f7b4da"
	],
	"folders": [],
	"folders_order": [],
	"timestamp": 1617725815554,
	"owner": 0,
	"public": false,
	"requests": [
		{
			"id": "34c9b94b-7a4d-93ce-097f-c07579b28a18",
			"headers": "",
			"headerData": [],
			"url": "https://swapi.dev/api/films/",
			"queryParams": [],
			"preRequestScript": null,
			"pathVariables": {},
			"pathVariableData": [],
			"method": "GET",
			"data": null,
			"dataMode": "params",
			"version": 2,
			"tests": null,
			"currentHelper": "normal",
			"helperAttributes": {},
			"time": 1617726251721,
			"name": "Obtener Pelicula",
			"description": "",
			"collectionId": "8fde5756-d5ba-4dd4-41b4-b34de55fef52",
			"responses": []
		},
		{
			"id": "9a7aed5e-3694-70d0-44a9-3eb815f7b4da",
			"headers": "",
			"headerData": [],
			"url": "https://swapi.dev/api/planets/",
			"queryParams": [],
			"pathVariables": {},
			"pathVariableData": [],
			"preRequestScript": null,
			"method": "GET",
			"collectionId": "8fde5756-d5ba-4dd4-41b4-b34de55fef52",
			"data": null,
			"dataMode": "params",
			"name": "Obtener Planetas",
			"description": "",
			"descriptionFormat": "html",
			"time": 1617726233557,
			"version": 2,
			"responses": [],
			"tests": null,
			"currentHelper": "normal",
			"helperAttributes": {}
		}
	]
}